<?xml version="1.0" encoding="utf-8"?>
<!-- Generator: Adobe Illustrator 26.0.1, SVG Export Plug-In . SVG Version: 6.00 Build 0)  -->
<svg version="1.1" id="レイヤー_1" xmlns="http://www.w3.org/2000/svg" xmlns:xlink="http://www.w3.org/1999/xlink" x="0px"
	 y="0px" viewBox="0 0 81 135" style="enable-background:new 0 0 81 135;" xml:space="preserve">
<style type="text/css">
	.st0{fill:none;stroke:#4C4A4A;stroke-width:8;stroke-linejoin:round;stroke-miterlimit:10;}
</style>
<polyline class="st0" points="35,3 35,130 72,93 "/>
</svg>
